wavedata.vcd
$date
	Sat Jun 20 23:42:27 2020
$end
$version
	Icarus Verilog
$end
$timescale
	1ps
$end
$scope module testbench $end
$var reg 1 ! CLOCK $end
$var reg 1 " RESET $end
$scope module CPU $end
$var wire 1 ! CLOCK $end
$var wire 1 " RESET $end
$var wire 32 # oneInstr [31:0] $end
$var wire 8 $ TWO_COMP_MUX_OUT [7:0] $end
$var wire 8 % REGOUT2 [7:0] $end
$var wire 8 & REGOUT1 [7:0] $end
$var wire 8 ' OPERAND1 [7:0] $end
$var wire 8 ( ALURESULT [7:0] $end
$var reg 3 ) ALUOP [2:0] $end
$var reg 8 * DESTINATION [7:0] $end
$var reg 8 + IMMEDIATE [7:0] $end
$var reg 1 , IMMEDIATE_MUXSELEC $end
$var reg 8 - OPCODE [7:0] $end
$var reg 32 . PC [31:0] $end
$var reg 3 / READREG1 [2:0] $end
$var reg 3 0 READREG2 [2:0] $end
$var reg 8 1 SOPERAND1 [7:0] $end
$var reg 1 2 TWO_COMP_MUX_SELEC $end
$var reg 1 3 WRITEENABLE $end
$var reg 3 4 WRITEREG [2:0] $end
$var reg 1 5 data_memory_read $end
$var reg 1 6 data_memory_write $end
$var reg 8 7 offset [7:0] $end
$var reg 10 8 pc_address [9:0] $end
$var reg 1 9 pc_cache_read $end
$scope module IMMEDIATE_MUX $end
$var wire 1 , MUXselector $end
$var wire 8 : in1 [7:0] $end
$var wire 8 ; in2 [7:0] $end
$var reg 8 < out [7:0] $end
$upscope $end
$scope module PC_mod $end
$var wire 8 = offset [7:0] $end
$upscope $end
$scope module TWOCOMPOUT_MUX $end
$var wire 1 2 MUXselector $end
$var wire 8 > in2 [7:0] $end
$var wire 8 ? in1 [7:0] $end
$var reg 8 @ out [7:0] $end
$upscope $end
$scope module alu $end
$var wire 8 A DATA2 [7:0] $end
$var wire 3 B SELECT [2:0] $end
$var wire 8 C DATA1 [7:0] $end
$var reg 8 D RESULT [7:0] $end
$var reg 1 E ZERO $end
$upscope $end
$scope module dataW $end
$var reg 1 F in $end
$var reg 8 G out [7:0] $end
$upscope $end
$scope module dcache $end
$var wire 8 H address [7:0] $end
$var wire 1 ! clock $end
$var wire 1 5 read $end
$var wire 1 " reset $end
$var wire 1 6 write $end
$var wire 8 I writedata [7:0] $end
$var wire 3 J tag [2:0] $end
$var wire 2 K offset [1:0] $end
$var wire 3 L index [2:0] $end
$var reg 1 M busywait $end
$var reg 1 N dirty $end
$var reg 1 O hit $end
$var reg 6 P mem_address [5:0] $end
$var reg 1 Q mem_read $end
$var reg 1 R mem_write $end
$var reg 32 S mem_writedata [31:0] $end
$var reg 3 T next_state [2:0] $end
$var reg 8 U readdata [7:0] $end
$var reg 3 V state [2:0] $end
$var reg 1 W status $end
$var reg 1 X valid $end
$scope module memory $end
$var wire 6 Y address [5:0] $end
$var wire 1 ! clock $end
$var wire 1 Q read $end
$var wire 1 " reset $end
$var wire 1 R write $end
$var wire 32 Z writedata [31:0] $end
$var reg 1 [ busywait $end
$var reg 1 \ readaccess $end
$var reg 32 ] readdata [31:0] $end
$var reg 1 ^ writeaccess $end
$var integer 32 _ i [31:0] $end
$upscope $end
$upscope $end
$scope module instruction_cache $end
$var wire 10 ` address [9:0] $end
$var wire 1 ! clock $end
$var wire 1 9 read $end
$var wire 1 " reset $end
$var wire 3 a tag [2:0] $end
$var wire 4 b offset [3:0] $end
$var wire 3 c index [2:0] $end
$var reg 1 d busywait $end
$var reg 1 e hit $end
$var reg 6 f mem_address [5:0] $end
$var reg 1 g mem_read $end
$var reg 33 h readdata [32:0] $end
$var reg 1 i valid $end
$scope module Instruction_memory $end
$var wire 6 j address [5:0] $end
$var wire 1 ! clock $end
$var wire 1 g read $end
$var reg 1 k busywait $end
$var reg 1 l readaccess $end
$var reg 128 m readdata [127:0] $end
$upscope $end
$upscope $end
$scope module myregfile $end
$var wire 1 ! CLOCK $end
$var wire 8 n IN [7:0] $end
$var wire 3 o INADDRESS [2:0] $end
$var wire 3 p OUT1ADDRESS [2:0] $end
$var wire 3 q OUT2ADDRESS [2:0] $end
$var wire 1 " RESET $end
$var wire 1 3 WRITE $end
$var reg 8 r OUT1 [7:0] $end
$var reg 8 s OUT2 [7:0] $end
$var reg 8 t Regout0 [7:0] $end
$var reg 8 u Regout1 [7:0] $end
$var reg 8 v Regout2 [7:0] $end
$var reg 8 w Regout3 [7:0] $end
$var reg 8 x Regout4 [7:0] $end
$var reg 8 y Regout5 [7:0] $end
$var reg 8 z Regout6 [7:0] $end
$var reg 8 { Regout7 [7:0] $end
$upscope $end
$scope module twoscom $end
$var wire 8 | in [7:0] $end
$var reg 8 } out [7:0] $end
$upscope $end
$upscope $end
$upscope $end
$enddefinitions $end
#0
$dumpvars
bx }
bx |
bx {
bx z
bx y
bx x
bx w
bx v
bx u
bx t
bx s
bx r
bx q
bx p
bx o
bx n
bx m
0l
0k
bx j
xi
bx h
xg
bx f
xe
xd
bx c
bx b
bx a
bx `
bx _
x^
bx ]
x\
x[
bx Z
bx Y
xX
xW
bx V
bx U
bx T
bx S
xR
xQ
bx P
xO
xN
xM
bx L
bx K
bx J
bx I
bx H
bx G
xF
xE
bx D
bx C
bx B
bx A
bx @
bx ?
bx >
bx =
bx <
bx ;
bx :
x9
bx 8
bx 7
x6
x5
bx 4
13
x2
bx 1
bx 0
bx /
bx .
bx -
x,
bx +
bx *
bx )
bx (
bx '
bx &
bx %
bx $
bx #
x"
1!
$end
#1000
19
#2000
b0 0
b0 q
b0 /
b0 p
b0 7
b0 =
b0 4
b0 o
b0 +
b0 :
b0 -
b0 *
b0 1
b0 #
0e
0i
b0 h
0d
0^
0\
0[
b100000000 _
b0 ]
b0 T
0W
b0 V
1"
#3000
b0 '
b0 <
b0 A
b0 )
b0 B
0,
0F
0E
0M
b11111111111111111111111111111100 .
#4000
b0 G
b0 n
b0 K
b0 L
b0 J
b0 (
b0 D
b0 H
0!
#6000
b0 %
b0 ?
b0 s
b0 |
b0 &
b0 C
b0 I
b0 r
b0 {
b0 z
b0 y
b0 x
b0 w
b0 v
b0 u
b0 t
#7000
b0 >
b0 }
#8000
1!
#9000
03
06
05
#10000
09
b0 .
#12000
0!
0"
#16000
1!
#17000
b0 a
b0 c
b0 b
b0 8
b0 `
19
#18000
09
b100 .
#19000
1l
1k
b0 f
b0 j
1g
1d
1e
#20000
0!
#24000
1!
#25000
19
#28000
0!
#32000
1!
#36000
0!
#40000
1!
#44000
0!
#48000
1!
#52000
0!
#56000
1!
#60000
0!
#64000
1!
bx00100000 m
#68000
0!
#72000
1!
#76000
0!
#80000
1!
#84000
0!
#88000
1!
#92000
0!
#96000
1!
#100000
0!
#104000
1!
bx0000000000100000 m
#108000
0!
#112000
1!
#116000
0!
#120000
1!
#124000
0!
#128000
1!
#132000
0!
#136000
1!
#140000
0!
#144000
1!
bx000000110000000000100000 m
#148000
0!
#152000
1!
#156000
0!
#160000
1!
#164000
0!
#168000
1!
#172000
0!
#176000
1!
#180000
0!
#184000
1!
bx00000000000000110000000000100000 m
#188000
0!
#192000
1!
#196000
0!
#200000
1!
#204000
0!
#208000
1!
#212000
0!
#216000
1!
#220000
0!
#224000
1!
bx0000010100000000000000110000000000100000 m
#228000
0!
#232000
1!
#236000
0!
#240000
1!
#244000
0!
#248000
1!
#252000
0!
#256000
1!
#260000
0!
#264000
1!
bx000000000000010100000000000000110000000000100000 m
#268000
0!
#272000
1!
#276000
0!
#280000
1!
#284000
0!
#288000
1!
#292000
0!
#296000
1!
#300000
0!
#304000
1!
bx00000100000000000000010100000000000000110000000000100000 m
#308000
0!
#312000
1!
#316000
0!
#320000
1!
#324000
0!
#328000
1!
#332000
0!
#336000
1!
#340000
0!
#344000
1!
bx0000000000000100000000000000010100000000000000110000000000100000 m
#348000
0!
#352000
1!
#356000
0!
#360000
1!
#364000
0!
#368000
1!
#372000
0!
#376000
1!
#380000
0!
#384000
1!
bx000001000000000000000100000000000000010100000000000000110000000000100000 m
#388000
0!
#392000
1!
#396000
0!
#400000
1!
#404000
0!
#408000
1!
#412000
0!
#416000
1!
#420000
0!
#424000
1!
bx00000011000001000000000000000100000000000000010100000000000000110000000000100000 m
#428000
0!
#432000
1!
#436000
0!
#440000
1!
#444000
0!
#448000
1!
#452000
0!
#456000
1!
#460000
0!
#464000
1!
bx0000010100000011000001000000000000000100000000000000010100000000000000110000000000100000 m
#468000
0!
#472000
1!
#476000
0!
#480000
1!
#484000
0!
#488000
1!
#492000
0!
#496000
1!
#500000
0!
#504000
1!
bx000000100000010100000011000001000000000000000100000000000000010100000000000000110000000000100000 m
#508000
0!
#512000
1!
#516000
0!
#520000
1!
#524000
0!
#528000
1!
#532000
0!
#536000
1!
#540000
0!
#544000
1!
bx00000100000000100000010100000011000001000000000000000100000000000000010100000000000000110000000000100000 m
#548000
0!
#552000
1!
#556000
0!
#560000
1!
#564000
0!
#568000
1!
#572000
0!
#576000
1!
#580000
0!
#584000
1!
bx0000001100000100000000100000010100000011000001000000000000000100000000000000010100000000000000110000000000100000 m
#588000
0!
#592000
1!
#596000
0!
#600000
1!
#604000
0!
#608000
1!
#612000
0!
#616000
1!
#620000
0!
#624000
1!
bx000001100000001100000100000000100000010100000011000001000000000000000100000000000000010100000000000000110000000000100000 m
#628000
0!
#632000
1!
#636000
0!
#640000
1!
#644000
0!
#648000
1!
#652000
0!
#656000
1!
#660000
0!
#664000
1!
0l
0k
b11000001100000001100000100000000100000010100000011000001000000000000000100000000000000010100000000000000110000000000100000 m
#666000
1i
#667000
b100000 '
b100000 <
b100000 A
b11 4
b11 o
b100000 +
b100000 :
b11 *
b110000000000100000 #
b110000000000100000 h
#668000
b100000 G
b100000 n
b1 J
b100000 (
b100000 D
b100000 H
0!
#671000
13
#672000
0g
0d
1!
#673000
b100 b
b100000 w
b100 8
b100 `
03
#674000
09
b1000 .
#675000
b101 '
b101 <
b101 A
b101 0
b101 q
b100 4
b100 o
b101 +
b101 :
b100 *
b1000000000000000101 #
b1000000000000000101 h
#676000
b101 G
b101 n
b1 K
b1 L
b0 J
b101 (
b101 D
b101 H
0!
#679000
13
#680000
1!
#681000
b1000 b
b101 x
b1000 8
b1000 `
03
19
#682000
09
b1100 .
#683000
b100 '
b100 <
b100 A
b100 0
b100 q
b11 /
b11 p
b101 4
b101 o
b100 +
b100 :
b10 -
b101 *
b11 1
b10000001010000001100000100 #
b10000001010000001100000100 h
#684000
b100 G
b100 n
b0 K
b0 $
b0 ;
b0 @
b0 '
b0 <
b0 A
b100 (
b100 D
b100 H
02
b1 )
b1 B
1,
0!
#685000
b101 '
b101 <
b101 A
b101 $
b101 ;
b101 @
b101 %
b101 ?
b101 s
b101 |
b100000 &
b100000 C
b100000 I
b100000 r
#686000
b11111011 >
b11111011 }
b100101 G
b100101 n
b1 K
b1 J
b100101 (
b100101 D
b100101 H
#687000
13
#688000
1!
#689000
b1100 b
b100101 y
b1100 8
b1100 `
03
19
#690000
09
b10000 .
#691000
b110 4
b110 o
b11 -
b110 *
b11000001100000001100000100 #
b11000001100000001100000100 h
#692000
b11111011 '
b11111011 <
b11111011 A
b11111011 $
b11111011 ;
b11111011 @
12
0!
#694000
b11011 G
b11011 n
b11 K
b110 L
b0 J
b11011 (
b11011 D
b11011 H
#695000
13
#696000
1!
#697000
b1 c
b0 b
b11011 z
b10000 8
b10000 `
03
19
#698000
0i
09
b10100 .
#699000
1l
1k
b1 f
b1 j
1g
1d
#700000
0!
#704000
1!
#705000
19
#708000
0!
#712000
1!
#716000
0!
#720000
1!
#724000
0!
#728000
1!
#732000
0!
#736000
1!
#740000
0!
#744000
1!
b11000001100000001100000100000000100000010100000011000001000000000000000100000000000000010100000000000000110000000000000011 m
#748000
0!
#752000
1!
#756000
0!
#760000
1!
#764000
0!
#768000
1!
#772000
0!
#776000
1!
#780000
0!
#784000
1!
#788000
0!
#792000
1!
#796000
0!
#800000
1!
#804000
0!
#808000
1!
#812000
0!
#816000
1!
#820000
0!
#824000
1!
b11000001100000001100000100000000100000010100000011000001000000000000000100000000000000010100000000000001110000000000000011 m
#828000
0!
#832000
1!
#836000
0!
#840000
1!
#844000
0!
#848000
1!
#852000
0!
#856000
1!
#860000
0!
#864000
1!
#868000
0!
#872000
1!
#876000
0!
#880000
1!
#884000
0!
#888000
1!
#892000
0!
#896000
1!
#900000
0!
#904000
1!
b11000001100000001100000100000000100000010100000011000001000000000000000100000000000000011100000000000001110000000000000011 m
#908000
0!
#912000
1!
#916000
0!
#920000
1!
#924000
0!
#928000
1!
#932000
0!
#936000
1!
#940000
0!
#944000
1!
b11000001100000001100000100000000100000010100000011000001000000000000000100000001010000011100000000000001110000000000000011 m
#948000
0!
#952000
1!
#956000
0!
#960000
1!
#964000
0!
#968000
1!
#972000
0!
#976000
1!
#980000
0!
#984000
1!
b11000001100000001100000100000000100000010100000011000001000000000000000101000001010000011100000000000001110000000000000011 m
#988000
0!
#992000
1!
#996000
0!
#1000000
1!
#1004000
0!
#1008000
1!
#1012000
0!
#1016000
1!
#1020000
0!
#1024000
1!
b11000001100000001100000100000000100000010100000011000001000000001000000101000001010000011100000000000001110000000000000011 m
#1028000
0!
#1032000
1!
#1036000
0!
#1040000
1!
#1044000
0!
#1048000
1!
#1052000
0!
#1056000
1!
#1060000
0!
#1064000
1!
b11000001100000001100000100000000100000010100000011000001110000001000000101000001010000011100000000000001110000000000000011 m
#1068000
0!
#1072000
1!
#1076000
0!
#1080000
1!
#1084000
0!
#1088000
1!
#1092000
0!
#1096000
1!
#1100000
0!
#1104000
1!
b11000001100000001100000100000000100000010100000110000001110000001000000101000001010000011100000000000001110000000000000011 m
#1108000
0!
#1112000
1!
#1116000
0!
#1120000
1!
#1124000
0!
#1128000
1!
#1132000
0!
#1136000
1!
#1140000
0!
#1144000
1!
b11000001100000001100000100000000100000011000000110000001110000001000000101000001010000011100000000000001110000000000000011 m
#1148000
0!
#1152000
1!
#1156000
0!
#1160000
1!
#1164000
0!
#1168000
1!
#1172000
0!
#1176000
1!
#1180000
0!
#1184000
1!
b11000001100000001100000100000000110000011000000110000001110000001000000101000001010000011100000000000001110000000000000011 m
#1188000
0!
#1192000
1!
#1196000
0!
#1200000
1!
#1204000
0!
#1208000
1!
#1212000
0!
#1216000
1!
#1220000
0!
#1224000
1!
b11000001100000001100000110000000110000011000000110000001110000001000000101000001010000011100000000000001110000000000000011 m
#1228000
0!
#1232000
1!
#1236000
0!
#1240000
1!
#1244000
0!
#1248000
1!
#1252000
0!
#1256000
1!
#1260000
0!
#1264000
1!
b11000001100000000000000110000000110000011000000110000001110000001000000101000001010000011100000000000001110000000000000011 m
#1268000
0!
#1272000
1!
#1276000
0!
#1280000
1!
#1284000
0!
#1288000
1!
#1292000
0!
#1296000
1!
#1300000
0!
#1304000
1!
b11000000100000000000000110000000110000011000000110000001110000001000000101000001010000011100000000000001110000000000000011 m
#1308000
0!
#1312000
1!
#1316000
0!
#1320000
1!
#1324000
0!
#1328000
1!
#1332000
0!
#1336000
1!
#1340000
0!
#1344000
1!
0l
0k
b100000000000000110000000110000011000000110000001110000001000000101000001010000011100000000000001110000000000000011 m
#1346000
1i
#1347000
b11 0
b11 q
b0 /
b0 p
b111 4
b111 o
b11 +
b11 :
b0 -
b111 *
b0 1
b1110000000000000011 #
b1110000000000000011 h
#1348000
b11 '
b11 <
b11 A
b0 )
b0 B
0,
0!
#1349000
b11 G
b11 n
b0 L
b11 (
b11 D
b11 H
b100000 %
b100000 ?
b100000 s
b100000 |
b0 &
b0 C
b0 I
b0 r
#1350000
b11100000 $
b11100000 ;
b11100000 @
b11100000 >
b11100000 }
#1351000
13
#1352000
0g
0d
1!
#1353000
b100 b
b11 {
b10100 8
b10100 `
03
#1354000
09
b11000 .
#1355000
b111 '
b111 <
b111 A
b111 0
b111 q
b101 /
b101 p
b101 4
b101 o
b111 +
b111 :
b10 -
b101 *
b101 1
b10000001010000010100000111 #
b10000001010000010100000111 h
#1356000
b111 G
b111 n
b1 L
b100000 $
b100000 ;
b100000 @
b100000 '
b100000 <
b100000 A
b111 (
b111 D
b111 H
02
b1 )
b1 B
1,
0!
#1357000
b11 '
b11 <
b11 A
b11 $
b11 ;
b11 @
b11 %
b11 ?
b11 s
b11 |
b100101 &
b100101 C
b100101 I
b100101 r
#1358000
b11111101 >
b11111101 }
b101000 G
b101000 n
b0 K
b10 L
b1 J
b101000 (
b101000 D
b101000 H
#1359000
13
#1360000
1!
#1361000
b1000 b
b101000 y
b11000 8
b11000 `
03
19
#1362000
09
b11100 .
#1363000
b110 /
b110 p
b110 4
b110 o
b11 -
b110 *
b110 1
b11000001100000011000000111 #
b11000001100000011000000111 h
#1364000
b11111101 '
b11111101 <
b11111101 A
b11111101 $
b11111101 ;
b11111101 @
12
0!
#1365000
b11011 &
b11011 C
b11011 I
b11011 r
#1366000
b11000 G
b11000 n
b110 L
b0 J
b11000 (
b11000 D
b11000 H
#1367000
13
#1368000
1!
#1369000
b1100 b
b11000 z
b11100 8
b11100 `
03
19
#1370000
09
b100000 .
#1371000
b110 0
b110 q
b0 /
b0 p
b10 4
b10 o
b110 +
b110 :
b0 -
b10 *
b0 1
b100000000000000110 #
b100000000000000110 h
#1372000
b110 '
b110 <
b110 A
b0 )
b0 B
0,
0!
#1373000
b110 G
b110 n
b10 K
b1 L
b110 (
b110 D
b110 H
b11000 %
b11000 ?
b11000 s
b11000 |
b0 &
b0 C
b0 I
b0 r
#1374000
b11101000 $
b11101000 ;
b11101000 @
b11101000 >
b11101000 }
#1375000
13
#1376000
1!
#1377000
b10 c
b0 b
b110 v
b100000 8
b100000 `
03
19
#1378000
0i
09
b100100 .
#1379000
1l
1k
b10 f
b10 j
1g
1d
#1380000
0!
#1384000
1!
#1385000
19
#1388000
0!
#1392000
1!
#1396000
0!
#1400000
1!
#1404000
0!
#1408000
1!
#1412000
0!
#1416000
1!
#1420000
0!
#1424000
1!
b1000000000000001100000001100000110000001100000011100000010000001010000010100000111000000000000011100000000xxxxxxxx m
#1428000
0!
#1432000
1!
#1436000
0!
#1440000
1!
#1444000
0!
#1448000
1!
#1452000
0!
#1456000
1!
#1460000
0!
#1464000
1!
b10000000000000011000000011000001100000011000000111000000100000010100000101000001110000000000000111xxxxxxxxxxxxxxxx m
#1468000
0!
#1472000
1!
#1476000
0!
#1480000
1!
#1484000
0!
#1488000
1!
#1492000
0!
#1496000
1!
#1500000
0!
#1504000
1!
b100000000000000110000000110000011000000110000001110000001000000101000001010000011100000000xxxxxxxxxxxxxxxxxxxxxxxx m
#1508000
0!
#1512000
1!
#1516000
0!
#1520000
1!
#1524000
0!
#1528000
1!
#1532000
0!
#1536000
1!
#1540000
0!
#1544000
1!
b1000000000000001100000001100000110000001100000011100000010000001010000010100000111xxxxxxxxxxxxxxxxxxxxxxxxxxxxxxxx m
#1548000
0!
#1552000
1!
#1556000
0!
#1560000
1!
#1564000
0!
#1568000
1!
#1572000
0!
#1576000
1!
#1580000
0!
#1584000
1!
b10000000000000011000000011000001100000011000000111000000100000010100000101xxxxxxxxxxxxxxxxxxxxxxxxxxxxxxxxxxxxxxxx m
#1588000
0!
#1592000
1!
#1596000
0!
#1600000
1!
#1604000
0!
#1608000
1!
#1612000
0!
#1616000
1!
#1620000
0!
#1624000
1!
b100000000000000110000000110000011000000110000001110000001000000101xxxxxxxxxxxxxxxxxxxxxxxxxxxxxxxxxxxxxxxxxxxxxxxx m
#1628000
0!
#1632000
1!
#1636000
0!
#1640000
1!
#1644000
0!
#1648000
1!
#1652000
0!
#1656000
1!
#1660000
0!
#1664000
1!
b1000000000000001100000001100000110000001100000011100000010xxxxxxxxxxxxxxxxxxxxxxxxxxxxxxxxxxxxxxxxxxxxxxxxxxxxxxxx m
#1668000
0!
#1672000
1!
#1676000
0!
#1680000
1!
#1684000
0!
#1688000
1!
#1692000
0!
#1696000
1!
#1700000
0!
#1704000
1!
b10000000000000011000000011000001100000011000000111xxxxxxxxxxxxxxxxxxxxxxxxxxxxxxxxxxxxxxxxxxxxxxxxxxxxxxxxxxxxxxxx m
#1708000
0!
#1712000
1!
#1716000
0!
#1720000
1!
#1724000
0!
#1728000
1!
#1732000
0!
#1736000
1!
#1740000
0!
#1744000
1!
b100000000000000110000000110000011000000110xxxxxxxxxxxxxxxxxxxxxxxxxxxxxxxxxxxxxxxxxxxxxxxxxxxxxxxxxxxxxxxxxxxxxxxx m
#1748000
0!
#1752000
1!
#1756000
0!
#1760000
1!
#1764000
0!
#1768000
1!
#1772000
0!
#1776000
1!
#1780000
0!
#1784000
1!
b1000000000000001100000001100000110xxxxxxxxxxxxxxxxxxxxxxxxxxxxxxxxxxxxxxxxxxxxxxxxxxxxxxxxxxxxxxxxxxxxxxxxxxxxxxxx m
#1788000
0!
#1792000
1!
#1796000
0!
#1800000
1!
#1804000
0!
#1808000
1!
#1812000
0!
#1816000
1!
#1820000
0!
#1824000
1!
b10000000000000011000000011xxxxxxxxxxxxxxxxxxxxxxxxxxxxxxxxxxxxxxxxxxxxxxxxxxxxxxxxxxxxxxxxxxxxxxxxxxxxxxxxxxxxxxxx m
#1828000
0!
#1832000
1!
#1836000
0!
#1840000
1!
#1844000
0!
#1848000
1!
#1852000
0!
#1856000
1!
#1860000
0!
#1864000
1!
b100000000000000110xxxxxxxxxxxxxxxxxxxxxxxxxxxxxxxxxxxxxxxxxxxxxxxxxxxxxxxxxxxxxxxxxxxxxxxxxxxxxxxxxxxxxxxxxxxxxxxx m
#1868000
0!
#1872000
1!
#1876000
0!
#1880000
1!
#1884000
0!
#1888000
1!
#1892000
0!
#1896000
1!
#1900000
0!
#1904000
1!
b1000000000xxxxxxxxxxxxxxxxxxxxxxxxxxxxxxxxxxxxxxxxxxxxxxxxxxxxxxxxxxxxxxxxxxxxxxxxxxxxxxxxxxxxxxxxxxxxxxxxxxxxxxxx m
#1908000
0!
#1912000
1!
#1916000
0!
#1920000
1!
#1924000
0!
#1928000
1!
#1932000
0!
#1936000
1!
#1940000
0!
#1944000
1!
b10xxxxxxxxxxxxxxxxxxxxxxxxxxxxxxxxxxxxxxxxxxxxxxxxxxxxxxxxxxxxxxxxxxxxxxxxxxxxxxxxxxxxxxxxxxxxxxxxxxxxxxxxxxxxxxxx m
#1948000
0!
#1952000
1!
#1956000
0!
#1960000
1!
#1964000
0!
#1968000
1!
#1972000
0!
#1976000
1!
#1980000
0!
#1984000
1!
b0xxxxxxxxxxxxxxxxxxxxxxxxxxxxxxxxxxxxxxxxxxxxxxxxxxxxxxxxxxxxxxxxxxxxxxxxxxxxxxxxxxxxxxxxxxxxxxxxxxxxxxxxxxxxxxxxxxxxxxxx m
#1988000
0!
#1992000
1!
#1996000
0!
#2000000
1!
#2004000
0!
#2008000
1!
#2012000
0!
#2016000
1!
#2020000
0!
#2024000
1!
0l
0k
bx m
#2026000
1i
#2027000
bx '
bx <
bx A
bx 0
bx q
bx /
bx p
bx 4
bx o
bx +
bx :
bx -
bx *
bx 1
bx #
b0xxxxxxxxxxxxxxxxxxxxxxxxxxxxxxxx h
#2028000
bx G
bx n
bx K
bx L
bx J
bx (
bx D
bx H
0!
#2032000
0g
0d
1!
#2033000
b100 b
b100100 8
b100100 `
#2034000
09
b101000 .
#2036000
0!
#2040000
1!
#2041000
b1000 b
b101000 8
b101000 `
19
#2042000
09
b101100 .
#2044000
0!
#2048000
1!
#2049000
b1100 b
b101100 8
b101100 `
19
#2050000
09
b110000 .
#2052000
0!
#2056000
1!
#2057000
b11 c
b0 b
b110000 8
b110000 `
19
#2058000
0i
09
b110100 .
#2059000
1l
1k
b11 f
b11 j
1g
1d
#2060000
0!
#2064000
1!
#2065000
19
